<svg width="12" height="14" viewBox="0 0 12 14" fill="none" xmlns="http://www.w3.org/2000/svg">
<path d="M10.6924 1.97695C9.82846 1.97695 9.12559 1.27408 9.12559 0.410156C9.12559 0.183641 8.94195 0 8.71543 0H2.7846C2.55808 0 2.37444 0.183641 2.37444 0.410156C2.37444 1.27408 1.67157 1.97695 0.807617 1.97695C0.581102 1.97695 0.397461 2.16059 0.397461 2.38711V8.64746C0.397461 9.91843 1.28597 11.206 3.03829 12.4745C4.29375 13.3832 5.53038 13.9409 5.58238 13.9642C5.6357 13.9881 5.69285 14 5.75 14C5.80715 14 5.8643 13.9881 5.91762 13.9642C5.96962 13.9409 7.20625 13.3832 8.46171 12.4745C10.214 11.206 11.1025 9.91843 11.1025 8.64746V2.38711C11.1025 2.16059 10.9189 1.97695 10.6924 1.97695ZM8.67223 5.82326L7.50867 6.95745L7.77953 8.53666C7.78626 8.56611 7.78984 8.59682 7.78984 8.62832C7.78984 8.85451 7.60672 9.03793 7.38064 9.03848C7.38013 9.03848 7.37963 9.03848 7.37909 9.03848C7.31376 9.03848 7.24827 9.02292 7.18825 8.99136L5.75 8.2352L4.31169 8.99134C4.17352 9.06396 4.00604 9.05188 3.87974 8.96008C3.75344 8.86834 3.6902 8.71278 3.71658 8.55892L3.9913 6.95743L2.82775 5.82323C2.71596 5.71427 2.67571 5.55127 2.72398 5.40277C2.77221 5.25429 2.90059 5.14607 3.05508 5.12364L4.66306 4.88999L5.38217 3.4329C5.45124 3.29293 5.59384 3.20428 5.74997 3.20428C5.90611 3.20428 6.0487 3.2929 6.11777 3.4329L6.83686 4.88999L8.44492 5.12364C8.59941 5.14607 8.72776 5.25429 8.776 5.40277C8.82429 5.5513 8.78403 5.7143 8.67223 5.82326Z" fill="white"/>
</svg>
