<svg width="50" height="50" viewBox="0 0 50 50" fill="none" xmlns="http://www.w3.org/2000/svg">
<g style="mix-blend-mode:multiply" opacity="0.2">
<circle cx="24.999" cy="25" r="25" fill="#FF8143"/>
</g>
<path d="M34.1648 23.3326C28.1819 23.3326 23.3318 28.1827 23.3318 34.1656C23.3318 40.1484 28.1819 44.9985 34.1648 44.9985C40.1477 44.9985 44.9978 40.1484 44.9978 34.1656C44.9909 28.1855 40.1448 23.3395 34.1648 23.3326ZM34.1648 43.3319C29.1024 43.3319 24.9984 39.228 24.9984 34.1656C24.9984 29.1031 29.1024 24.9992 34.1648 24.9992C39.2272 24.9992 43.3312 29.1031 43.3312 34.1656C43.3252 39.2255 39.2248 43.3259 34.1648 43.3319Z" fill="#002959"/>
<path d="M49.4976 32.384L48.2726 30.384L48.331 28.0458C48.3704 26.7601 47.6782 25.5631 46.5444 24.9559L44.4869 23.8434L43.3736 21.7843C42.7649 20.6525 41.5692 19.9615 40.2846 19.9994L37.9447 20.0619L35.9447 18.8369C34.8527 18.1627 33.4736 18.1627 32.3815 18.8369L30.3816 20.0619L28.045 19.9994C27.5726 19.9858 27.1026 20.071 26.6651 20.2494V17.1836L32.4149 14.3329C33.2253 13.9275 33.5632 12.9488 33.1757 12.1296L29.0833 3.7966L29.0641 3.8066C28.9916 3.64145 28.8665 3.50492 28.7083 3.41828L22.0419 0.0850557C21.9247 0.0276248 21.7957 -0.00148904 21.6652 5.86273e-05H11.6656C11.5366 -0.00135791 11.4091 0.0271672 11.2931 0.0833891L4.62663 3.41661C4.46843 3.50325 4.34333 3.63978 4.27081 3.80493L4.24915 3.7991L0.149286 12.1546C-0.222931 12.9704 0.119292 13.9344 0.922593 14.3329L6.66573 17.1836V31.6656C6.66573 33.0463 7.78498 34.1656 9.16565 34.1656H18.332C18.3327 34.7949 18.5081 35.4117 18.8386 35.9472L20.0636 37.9471L19.9986 40.2854C19.9597 41.5711 20.6516 42.7681 21.7852 43.3761L23.8426 44.4885L24.9559 46.5468C25.5658 47.6775 26.7608 48.368 28.045 48.3317L30.3849 48.2684L32.3849 49.4934C33.4768 50.1689 34.8569 50.1689 35.9489 49.4934L37.9488 48.2684L40.2846 48.3317C41.5701 48.3699 42.7668 47.6782 43.3753 46.5451L44.4878 44.4877L46.546 43.3744C47.6786 42.7664 48.3698 41.5702 48.331 40.2854L48.2676 37.9454L49.4926 35.9455C50.168 34.8549 50.17 33.4764 49.4976 32.384ZM26.6734 15.3187C26.7309 10.1522 27.61 7.29564 28.2567 5.89736L31.6649 12.843L26.6734 15.3187ZM20.3244 1.66667C19.4613 2.80052 18.0873 3.42632 16.6654 3.33328C15.2429 3.4269 13.8682 2.80103 13.0047 1.66667H20.3244ZM5.08245 5.89319C5.7266 7.28731 6.6049 10.143 6.66073 15.3245L1.6609 12.8671L5.08245 5.89319ZM8.33234 31.6656V15.8329C8.33234 9.23391 7.03572 5.91652 6.22408 4.48574L11.2314 1.98582C12.317 3.94726 14.4266 5.11738 16.6654 4.99989C18.9051 5.11657 21.0149 3.9447 22.0994 1.98166L27.1067 4.48574C26.2951 5.91652 24.9984 9.23391 24.9984 15.8329V21.7143C24.9851 21.7385 24.9676 21.7593 24.9543 21.7843L23.8418 23.8426L21.7835 24.955C20.6503 25.5632 19.959 26.7603 19.9986 28.0458L20.0619 30.3857L18.837 32.3856C18.8137 32.4231 18.7978 32.4631 18.7762 32.5014H9.16565C8.94421 32.5014 8.73187 32.4133 8.57552 32.2565C8.41918 32.0997 8.33168 31.8871 8.33234 31.6656ZM48.0735 35.0755C48.0735 35.0755 46.6469 37.4238 46.626 37.4988C46.6052 37.5738 46.6644 40.332 46.6644 40.332C46.6835 40.9898 46.3284 41.6016 45.7477 41.9111C45.7477 41.9111 43.3753 43.2019 43.3311 43.2402C43.2537 43.3069 41.9087 45.7543 41.9087 45.7543C41.5979 46.3323 40.9872 46.685 40.3313 46.6651C40.3313 46.6651 37.573 46.6068 37.498 46.626C37.423 46.6451 35.0748 48.0726 35.0748 48.0726C34.5169 48.4176 33.8119 48.4176 33.254 48.0726C33.254 48.0726 30.9066 46.6476 30.8316 46.6268C30.7566 46.606 27.9983 46.6651 27.9983 46.6651C27.3376 46.6964 26.7198 46.3378 26.4192 45.7485C26.4192 45.7485 25.1284 43.3761 25.0901 43.3319C25.0234 43.2544 22.576 41.9095 22.576 41.9095C21.9982 41.5986 21.6456 40.9879 21.6652 40.332C21.6652 40.332 21.7269 37.5821 21.7052 37.4988C21.6836 37.4155 20.2578 35.0755 20.2578 35.0755C19.9127 34.5176 19.9127 33.8126 20.2578 33.2548C20.2578 33.2548 21.6827 30.9073 21.7036 30.8323C21.7244 30.7573 21.6652 27.9991 21.6652 27.9991C21.6453 27.3423 21.9987 26.7307 22.5777 26.42C22.5777 26.42 25.0243 25.0767 25.0901 24.9992C25.1284 24.9542 26.4234 22.5768 26.4234 22.5768C26.7343 22.0002 27.3435 21.6479 27.9983 21.666C27.9983 21.666 30.7524 21.731 30.8316 21.7093C30.9107 21.6877 33.254 20.2594 33.254 20.2594C33.8124 19.9152 34.5172 19.9152 35.0756 20.2594C35.0756 20.2594 37.423 21.6877 37.498 21.7093C37.573 21.731 40.3313 21.666 40.3313 21.666C40.9874 21.6486 41.5978 22.0013 41.9104 22.5785C41.9104 22.5785 43.2028 24.9567 43.2437 25.0009C43.3103 25.0784 45.7577 26.4233 45.7577 26.4233C46.3334 26.7351 46.6842 27.3447 46.6644 27.9991C46.6644 27.9991 46.6027 30.749 46.6244 30.8323C46.646 30.9157 48.0718 33.2556 48.0718 33.2556C48.4174 33.8129 48.4181 34.5176 48.0735 35.0755Z" fill="#002959"/>
<path d="M38.5455 29.4416L31.6332 37.1221L29.7541 35.243C29.4271 34.9272 28.9074 34.9317 28.586 35.2532C28.2645 35.5746 28.26 36.0943 28.5758 36.4213L31.0757 38.9212C31.232 39.0775 31.4439 39.1653 31.6649 39.1654H31.6865C31.9151 39.1593 32.1311 39.0596 32.284 38.8896L39.7838 30.5565C40.0807 30.2133 40.0484 29.6957 39.7112 29.392C39.374 29.0883 38.8557 29.1104 38.5455 29.4416Z" fill="#002959"/>
</svg>
