<svg width="25" height="24" viewBox="0 0 25 24" fill="none" xmlns="http://www.w3.org/2000/svg">
<path d="M18.6665 0H6.6665C3.3668 0 0.666504 2.69912 0.666504 6V18C0.666504 21.2997 3.3668 24 6.6665 24H18.6665C21.9662 24 24.6665 21.2997 24.6665 18V6C24.6665 2.69912 21.9662 0 18.6665 0ZM12.6665 16.9998C9.90469 16.9998 7.66641 14.7606 7.66641 12C7.66641 9.23818 9.90469 6.9999 12.6665 6.9999C15.4271 6.9999 17.6666 9.23818 17.6666 12C17.6666 14.7606 15.4271 16.9998 12.6665 16.9998ZM19.1666 6.9999C18.3374 6.9999 17.6666 6.32818 17.6666 5.4999C17.6666 4.67162 18.3374 3.9999 19.1666 3.9999C19.9958 3.9999 20.6666 4.67162 20.6666 5.4999C20.6666 6.32818 19.9958 6.9999 19.1666 6.9999Z" fill="#002959"/>
</svg>
