<svg width="25" height="24" viewBox="0 0 25 24" fill="none" xmlns="http://www.w3.org/2000/svg">
<path d="M22.9356 0H2.3974C1.44141 0 0.666504 0.774902 0.666504 1.7309V22.2691C0.666504 23.2251 1.44141 24 2.3974 24H22.9356C23.8916 24 24.6665 23.2251 24.6665 22.2691V1.7309C24.6665 0.774902 23.8916 0 22.9356 0V0ZM9.17944 18.1406H6.2569V9.34808H9.17944V18.1406ZM7.71826 8.14746H7.69922C6.71851 8.14746 6.08423 7.47235 6.08423 6.6286C6.08423 5.76581 6.73792 5.10938 7.73767 5.10938C8.73743 5.10938 9.35266 5.76581 9.3717 6.6286C9.3717 7.47235 8.73743 8.14746 7.71826 8.14746ZM19.7175 18.1406H16.7953V13.4368C16.7953 12.2547 16.3722 11.4485 15.3148 11.4485C14.5074 11.4485 14.0266 11.9923 13.8153 12.5173C13.738 12.7051 13.7192 12.9677 13.7192 13.2305V18.1406H10.7968C10.7968 18.1406 10.8351 10.173 10.7968 9.34808H13.7192V10.593C14.1075 9.9939 14.8024 9.14172 16.353 9.14172C18.2758 9.14172 19.7175 10.3984 19.7175 13.099V18.1406Z" fill="#002959"/>
</svg>
