<svg width="32" height="31" viewBox="0 0 32 31" fill="none" xmlns="http://www.w3.org/2000/svg">
<g style="mix-blend-mode:multiply" opacity="0.2">
<circle cx="15.6704" cy="15.5" r="10" fill="#FF8143"/>
</g>
<g style="mix-blend-mode:multiply">
<path d="M29.4911 21.0078H1.83487C0.28167 20.9502 0.282842 18.7211 1.83487 18.6641H29.4911C31.0443 18.7217 31.0431 20.9507 29.4911 21.0078ZM30.663 15.1484C30.663 14.5012 30.1383 13.9766 29.4911 13.9766H1.83487C0.28167 14.0342 0.282842 16.2632 1.83487 16.3203H29.4911C30.1383 16.3203 30.663 15.7957 30.663 15.1484ZM10.9112 11.6328C10.9108 11.6328 10.9103 11.6328 10.9099 11.6328C10.2627 11.6321 9.73858 11.1069 9.73929 10.4597L9.74497 5.24486C9.74503 3.92141 8.66474 2.84375 7.337 2.84375C4.79362 2.86408 4.00501 6.31016 6.31366 7.40891C6.89896 7.68512 7.14962 8.3835 6.87341 8.96879C6.59726 9.55414 5.89894 9.80475 5.31353 9.52859C0.773154 7.33432 2.29812 0.547988 7.33706 0.5C9.95708 0.5 12.0887 2.62912 12.0887 5.24609L12.083 10.4622C12.0824 11.1089 11.5579 11.6328 10.9112 11.6328ZM16.8349 10.4609V1.67188C16.7773 0.118672 14.5482 0.119844 14.4911 1.67188V10.4609C14.4911 11.1082 15.0158 11.6328 15.663 11.6328C16.3102 11.6328 16.8349 11.1082 16.8349 10.4609ZM20.4689 11.6328C21.1161 11.6321 21.6403 11.1069 21.6396 10.4597L21.6339 5.24609C21.6339 3.92146 22.7141 2.84375 24.0419 2.84375C26.5853 2.86408 27.3739 6.31016 25.0652 7.40891C24.48 7.68512 24.2293 8.3835 24.5055 8.96879C24.7817 9.55414 25.48 9.80486 26.0654 9.52859C30.6058 7.33432 29.0808 0.547988 24.0418 0.5C21.4218 0.5 19.2901 2.62912 19.2901 5.24732L19.2958 10.4622C19.2965 11.109 19.821 11.6328 20.4677 11.6328H20.4689ZM12.0831 29.3295L12.0888 24.5248C12.0895 23.8776 11.5655 23.3523 10.9183 23.3516C10.2712 23.3507 9.74573 23.8748 9.74503 24.5221L9.73935 29.3268C9.73858 29.974 10.2626 30.4993 10.9099 30.5H10.9113C11.5578 30.5 12.0823 29.9762 12.0831 29.3295ZM16.8349 29.3281V24.5234C16.7773 22.9702 14.5482 22.9714 14.4911 24.5234V29.3281C14.4911 29.9754 15.0158 30.5 15.663 30.5C16.3102 30.5 16.8349 29.9754 16.8349 29.3281ZM20.469 30.5C21.1163 30.4992 21.6403 29.9739 21.6396 29.3268L21.6339 24.5221C21.6332 23.8749 21.1077 23.3508 20.4607 23.3516C19.8134 23.3523 19.2894 23.8776 19.2901 24.5248L19.2958 29.3295C19.2966 29.9762 19.821 30.5 20.4677 30.5H20.469Z" fill="#002959"/>
<path d="M29.4911 21.0078H1.83487C0.28167 20.9502 0.282842 18.7211 1.83487 18.6641H29.4911C31.0443 18.7217 31.0431 20.9507 29.4911 21.0078ZM30.663 15.1484C30.663 14.5012 30.1383 13.9766 29.4911 13.9766H1.83487C0.28167 14.0342 0.282842 16.2632 1.83487 16.3203H29.4911C30.1383 16.3203 30.663 15.7957 30.663 15.1484ZM10.9112 11.6328C10.9108 11.6328 10.9103 11.6328 10.9099 11.6328C10.2627 11.6321 9.73858 11.1069 9.73929 10.4597L9.74497 5.24486C9.74503 3.92141 8.66474 2.84375 7.337 2.84375C4.79362 2.86408 4.00501 6.31016 6.31366 7.40891C6.89896 7.68512 7.14962 8.3835 6.87341 8.96879C6.59726 9.55414 5.89894 9.80475 5.31353 9.52859C0.773154 7.33432 2.29812 0.547988 7.33706 0.5C9.95708 0.5 12.0887 2.62912 12.0887 5.24609L12.083 10.4622C12.0824 11.1089 11.5579 11.6328 10.9112 11.6328ZM16.8349 10.4609V1.67188C16.7773 0.118672 14.5482 0.119844 14.4911 1.67188V10.4609C14.4911 11.1082 15.0158 11.6328 15.663 11.6328C16.3102 11.6328 16.8349 11.1082 16.8349 10.4609ZM20.4689 11.6328C21.1161 11.6321 21.6403 11.1069 21.6396 10.4597L21.6339 5.24609C21.6339 3.92146 22.7141 2.84375 24.0419 2.84375C26.5853 2.86408 27.3739 6.31016 25.0652 7.40891C24.48 7.68512 24.2293 8.3835 24.5055 8.96879C24.7817 9.55414 25.48 9.80486 26.0654 9.52859C30.6058 7.33432 29.0808 0.547988 24.0418 0.5C21.4218 0.5 19.2901 2.62912 19.2901 5.24732L19.2958 10.4622C19.2965 11.109 19.821 11.6328 20.4677 11.6328H20.4689ZM12.0831 29.3295L12.0888 24.5248C12.0895 23.8776 11.5655 23.3523 10.9183 23.3516C10.2712 23.3507 9.74573 23.8748 9.74503 24.5221L9.73935 29.3268C9.73858 29.974 10.2626 30.4993 10.9099 30.5H10.9113C11.5578 30.5 12.0823 29.9762 12.0831 29.3295ZM16.8349 29.3281V24.5234C16.7773 22.9702 14.5482 22.9714 14.4911 24.5234V29.3281C14.4911 29.9754 15.0158 30.5 15.663 30.5C16.3102 30.5 16.8349 29.9754 16.8349 29.3281ZM20.469 30.5C21.1163 30.4992 21.6403 29.9739 21.6396 29.3268L21.6339 24.5221C21.6332 23.8749 21.1077 23.3508 20.4607 23.3516C19.8134 23.3523 19.2894 23.8776 19.2901 24.5248L19.2958 29.3295C19.2966 29.9762 19.821 30.5 20.4677 30.5H20.469Z" stroke="white"/>
</g>
</svg>
