<svg width="15" height="14" viewBox="0 0 15 14" fill="none" xmlns="http://www.w3.org/2000/svg">
<path d="M6.87629 6.47569L0.587227 3.78804C0.497129 3.74952 0.397461 3.81668 0.397461 3.91592V11.1012C0.397461 11.2827 0.506371 11.446 0.672484 11.5134L6.77246 13.9899C6.86226 14.0264 6.95996 13.9593 6.95996 13.8611V6.60358C6.95996 6.54774 6.92698 6.49737 6.87629 6.47569Z" fill="white"/>
<path d="M7.45 5.71217L13.5289 3.11433C13.6382 3.06764 13.6411 2.91156 13.5337 2.86069L7.58196 0.0416503C7.46468 -0.0138834 7.32922 -0.0138834 7.21195 0.0416503L1.26022 2.86069C1.15279 2.91156 1.15572 3.06764 1.26498 3.11433L7.34391 5.71217C7.37781 5.72669 7.41609 5.72669 7.45 5.71217Z" fill="white"/>
<path d="M7.83496 6.60358V13.8611C7.83496 13.9593 7.93266 14.0264 8.02246 13.9899L14.1224 11.5134C14.2885 11.446 14.3975 11.2827 14.3975 11.1012V3.91592C14.3975 3.81668 14.2978 3.74952 14.2077 3.78804L7.91863 6.47569C7.86794 6.49737 7.83496 6.54774 7.83496 6.60358Z" fill="white"/>
</svg>
